{
   "content":[
      {
         "id":1,
         "name":"[09/09/2020] test-problem -1",
         "status":"OPEN",
         "effectiveStatus":"OPEN",
         "blamedTeam":{
            "id":1,
            "name":"Get / OMARE",
            "assignableToProblems":true,
            "assignableToFunctionalities":true
         },
         "creationDateTime":"2020-09-08T07:17:01.000Z",
         "firstSeenDateTime":"2020-08-24T12:16:29.000Z",
         "lastSeenDateTime":"2020-09-09T11:26:17.000Z",
         "aggregate":{
            "patternCount":2,
            "errorCount":55,
            "scenarioCount":3,
            "firstScenarioName":"nl+de+be+fr ▶ Functionalities 2138 & 2139 : Available actions ▶ Splitted order ▶ HD/1FF - No Pending Action ▶ detailed",
            "branchCount":2,
            "firstBranch":"develop",
            "releaseCount":2,
            "firstRelease":"2009",
            "versionCount":27,
            "firstVersion":"2009.2008241300",
            "countryCount":2,
            "firstCountry":{
               "code":"be",
               "name":"Belgium"
            },
            "typeCount":1,
            "firstType":{
               "code":"api-postman",
               "name":"Integ. APIs",
               "source":{
                  "code":"postman",
                  "name":"Postman",
                  "letter":"P",
                  "technology":"POSTMAN",
                  "vcsUrl":"",
                  "defaultBranch":"develop",
                  "postmanCountryRootFolders":true
               },
               "browser":false,
               "mobile":false
            },
            "platformCount":2,
            "firstPlatform":"euin2",
            "cycleStabilities":[
               {
                  "cycleName":"day",
                  "branchName":"develop",
                  "executionStabilities":[
                     {
                        "executionId":33490,
                        "testDate":"2020-09-03T17:11:29.000Z",
                        "status":"E"
                     },
                     {
                        "executionId":33499,
                        "testDate":"2020-09-04T04:31:04.000Z",
                        "status":"E"
                     },
                     {
                        "executionId":33502,
                        "testDate":"2020-09-04T12:14:57.000Z",
                        "status":"E"
                     },
                     {
                        "executionId":33504,
                        "testDate":"2020-09-04T17:15:55.000Z",
                        "status":"E"
                     },
                     {
                        "executionId":33513,
                        "testDate":"2020-09-07T06:21:19.000Z",
                        "status":"E"
                     },
                     {
                        "executionId":33518,
                        "testDate":"2020-09-07T12:09:39.000Z",
                        "status":"E"
                     },
                     {
                        "executionId":33525,
                        "testDate":"2020-09-08T04:28:30.000Z",
                        "status":"E"
                     },
                     {
                        "executionId":33527,
                        "testDate":"2020-09-08T12:17:51.000Z",
                        "status":"E"
                     },
                     {
                        "executionId":33530,
                        "testDate":"2020-09-08T17:12:53.000Z",
                        "status":"E"
                     },
                     {
                        "executionId":33538,
                        "testDate":"2020-09-09T06:08:55.000Z",
                        "status":"E"
                     }
                  ]
               },
               {
                  "cycleName":"night",
                  "branchName":"develop",
                  "executionStabilities":[
                     {
                        "executionId":33377,
                        "testDate":"2020-08-25T23:31:29.000Z",
                        "status":"O"
                     },
                     {
                        "executionId":33391,
                        "testDate":"2020-08-26T23:34:25.000Z",
                        "status":"O"
                     },
                     {
                        "executionId":33409,
                        "testDate":"2020-08-27T23:39:54.000Z",
                        "status":"O"
                     },
                     {
                        "executionId":33429,
                        "testDate":"2020-08-28T23:34:29.000Z",
                        "status":"O"
                     },
                     {
                        "executionId":33451,
                        "testDate":"2020-09-01T23:32:57.000Z",
                        "status":"E"
                     },
                     {
                        "executionId":33471,
                        "testDate":"2020-09-02T23:36:56.000Z",
                        "status":"E"
                     },
                     {
                        "executionId":33497,
                        "testDate":"2020-09-03T23:36:40.000Z",
                        "status":"E"
                     },
                     {
                        "executionId":33510,
                        "testDate":"2020-09-05T00:03:47.000Z",
                        "status":"E"
                     },
                     {
                        "executionId":33523,
                        "testDate":"2020-09-07T23:37:16.000Z",
                        "status":"E"
                     },
                     {
                        "executionId":33536,
                        "testDate":"2020-09-08T23:36:13.000Z",
                        "status":"E"
                     }
                  ]
               },
               {
                  "cycleName":"day",
                  "branchName":"stab",
                  "executionStabilities":[
                     {
                        "executionId":33467,
                        "testDate":"2020-09-02T17:28:25.000Z",
                        "status":"O"
                     },
                     {
                        "executionId":33472,
                        "testDate":"2020-09-03T02:33:56.000Z",
                        "status":"O"
                     },
                     {
                        "executionId":33498,
                        "testDate":"2020-09-04T02:22:38.000Z",
                        "status":"O"
                     },
                     {
                        "executionId":33501,
                        "testDate":"2020-09-04T11:29:52.000Z",
                        "status":"O"
                     },
                     {
                        "executionId":33505,
                        "testDate":"2020-09-04T17:30:35.000Z",
                        "status":"O"
                     },
                     {
                        "executionId":33511,
                        "testDate":"2020-09-07T02:26:32.000Z",
                        "status":"O"
                     },
                     {
                        "executionId":33517,
                        "testDate":"2020-09-07T11:28:05.000Z",
                        "status":"O"
                     },
                     {
                        "executionId":33524,
                        "testDate":"2020-09-08T02:19:42.000Z",
                        "status":"E"
                     },
                     {
                        "executionId":33526,
                        "testDate":"2020-09-08T11:45:05.000Z",
                        "status":"E"
                     },
                     {
                        "executionId":33539,
                        "testDate":"2020-09-09T11:26:17.000Z",
                        "status":"E"
                     }
                  ]
               },
               {
                  "cycleName":"night",
                  "branchName":"stab",
                  "executionStabilities":[
                     {
                        "executionId":33378,
                        "testDate":"2020-08-25T23:44:00.000Z",
                        "status":"O"
                     },
                     {
                        "executionId":33392,
                        "testDate":"2020-08-26T23:47:05.000Z",
                        "status":"O"
                     },
                     {
                        "executionId":33410,
                        "testDate":"2020-08-27T23:52:56.000Z",
                        "status":"O"
                     },
                     {
                        "executionId":33428,
                        "testDate":"2020-08-28T22:33:03.000Z",
                        "status":"O"
                     },
                     {
                        "executionId":33449,
                        "testDate":"2020-09-01T21:19:15.000Z",
                        "status":"O"
                     },
                     {
                        "executionId":33469,
                        "testDate":"2020-09-02T21:19:18.000Z",
                        "status":"O"
                     },
                     {
                        "executionId":33495,
                        "testDate":"2020-09-03T21:19:27.000Z",
                        "status":"O"
                     },
                     {
                        "executionId":33507,
                        "testDate":"2020-09-04T21:19:49.000Z",
                        "status":"O"
                     },
                     {
                        "executionId":33521,
                        "testDate":"2020-09-07T21:19:31.000Z",
                        "status":"O"
                     },
                     {
                        "executionId":33534,
                        "testDate":"2020-09-08T21:19:23.000Z",
                        "status":"O"
                     }
                  ]
               },
               {
                  "cycleName":"day",
                  "branchName":"master",
                  "executionStabilities":[
                     {
                        "executionId":33464,
                        "testDate":"2020-09-02T11:50:16.000Z",
                        "status":"O"
                     },
                     {
                        "executionId":33468,
                        "testDate":"2020-09-02T17:52:24.000Z",
                        "status":"O"
                     },
                     {
                        "executionId":33474,
                        "testDate":"2020-09-03T04:35:13.000Z",
                        "status":"O"
                     },
                     {
                        "executionId":33480,
                        "testDate":"2020-09-03T11:26:57.000Z",
                        "status":"O"
                     },
                     {
                        "executionId":33491,
                        "testDate":"2020-09-03T17:43:44.000Z",
                        "status":"O"
                     },
                     {
                        "executionId":33500,
                        "testDate":"2020-09-04T04:41:08.000Z",
                        "status":"O"
                     },
                     {
                        "executionId":33506,
                        "testDate":"2020-09-04T17:57:40.000Z",
                        "status":"O"
                     },
                     {
                        "executionId":33512,
                        "testDate":"2020-09-07T06:16:30.000Z",
                        "status":"O"
                     },
                     {
                        "executionId":33516,
                        "testDate":"2020-09-07T09:29:22.000Z",
                        "status":"O"
                     },
                     {
                        "executionId":33532,
                        "testDate":"2020-09-08T17:52:47.000Z",
                        "status":"O"
                     }
                  ]
               },
               {
                  "cycleName":"night",
                  "branchName":"master",
                  "executionStabilities":[
                     {
                        "executionId":33379,
                        "testDate":"2020-08-26T00:06:41.000Z",
                        "status":"O"
                     },
                     {
                        "executionId":33393,
                        "testDate":"2020-08-27T00:13:03.000Z",
                        "status":"O"
                     },
                     {
                        "executionId":33411,
                        "testDate":"2020-08-28T00:12:37.000Z",
                        "status":"O"
                     },
                     {
                        "executionId":33431,
                        "testDate":"2020-08-28T23:45:43.000Z",
                        "status":"O"
                     },
                     {
                        "executionId":33450,
                        "testDate":"2020-09-01T23:03:30.000Z",
                        "status":"O"
                     },
                     {
                        "executionId":33470,
                        "testDate":"2020-09-02T21:31:34.000Z",
                        "status":"O"
                     },
                     {
                        "executionId":33496,
                        "testDate":"2020-09-03T23:07:44.000Z",
                        "status":"O"
                     },
                     {
                        "executionId":33509,
                        "testDate":"2020-09-04T23:10:54.000Z",
                        "status":"O"
                     },
                     {
                        "executionId":33522,
                        "testDate":"2020-09-07T23:07:27.000Z",
                        "status":"O"
                     },
                     {
                        "executionId":33535,
                        "testDate":"2020-09-08T23:13:05.000Z",
                        "status":"O"
                     }
                  ]
               }
            ]
         }
      }
   ],
   "pageable":{
      "sort":{
         "sorted":true,
         "unsorted":false
      },
      "pageSize":10,
      "pageNumber":0,
      "offset":0,
      "paged":true,
      "unpaged":false
   },
   "last":false,
   "totalPages":3,
   "totalElements":23,
   "first":true,
   "sort":{
      "sorted":true,
      "unsorted":false
   },
   "numberOfElements":10,
   "size":10,
   "number":0
}